<?xml version="1.0" encoding="utf-8"?>
<!-- Generator: Adobe Illustrator 25.2.1, SVG Export Plug-In . SVG Version: 6.00 Build 0)  -->
<svg version="1.1" id="Layer_1" xmlns="http://www.w3.org/2000/svg" xmlns:xlink="http://www.w3.org/1999/xlink" x="0px" y="0px"
	 viewBox="0 0 18.4 16.3" style="enable-background:new 0 0 18.4 16.3;" xml:space="preserve">
<style type="text/css">
	.st0{fill:#FFF9F6;}
</style>
<g id="w1">
</g>
<g id="b2">
	<g>
		<g>
			<g>
				<path class="st0" d="M11.3,14.8h0.1C11.4,14.7,11.3,14.8,11.3,14.8z"/>
				<polygon class="st0" points="11.1,14.1 11.1,14.1 11,14 				"/>
				<path class="st0" d="M11.1,13.4c-0.2,0.1,0,0.2,0,0.3l0,0l0.1,0.1C11.1,13.7,11.1,13.5,11.1,13.4z"/>
				<path class="st0" d="M11.5,13.1C11.4,13.1,11.4,13,11.5,13.1C11.5,13.2,11.5,13.2,11.5,13.1C11.5,13.2,11.5,13.1,11.5,13.1z"/>
				<path class="st0" d="M11.5,13.2C11.5,13.2,11.5,13.1,11.5,13.2L11.5,13.2z"/>
				<path class="st0" d="M11.4,12.8L11.4,12.8c0.1,0.1,0.1,0,0.1,0S11.5,12.8,11.4,12.8z"/>
				<path class="st0" d="M11.3,12.8L11.3,12.8C11.4,12.8,11.4,12.8,11.3,12.8z"/>
				<path class="st0" d="M11.4,12.9L11.4,12.9C11.3,12.8,11.3,12.8,11.4,12.9C11.3,12.8,11.4,12.9,11.4,12.9z"/>
				<path class="st0" d="M11.4,13c0,0.1-0.1,0.1-0.1,0C11.3,13.2,11.4,13.1,11.4,13z"/>
				<path class="st0" d="M10.9,13.4L10.9,13.4v0.1C10.9,13.5,11,13.4,10.9,13.4z"/>
				<path class="st0" d="M11.5,12.3h-0.1v0.1C11.5,12.4,11.5,12.3,11.5,12.3z"/>
				<path class="st0" d="M11.4,12.3L11.4,12.3C11.3,12.3,11.3,12.3,11.4,12.3z"/>
				<polygon class="st0" points="11.1,12.8 11.3,12.9 11.1,12.7 				"/>
				<path class="st0" d="M11.5,11.9l0.1,0.1L11.5,11.9z"/>
				<path class="st0" d="M11.5,11.7c0.1,0,0.1-0.1,0.2,0c0-0.1-0.1-0.1-0.1-0.2C11.6,11.5,11.6,11.6,11.5,11.7z"/>
				<path class="st0" d="M11.5,11.4L11.5,11.4L11.5,11.4z"/>
				<path class="st0" d="M11.3,12.1c0,0,0.1,0,0.1-0.1L11.3,12.1L11.3,12.1z"/>
				<path class="st0" d="M11.3,12L11.3,12L11.3,12C11.3,11.9,11.3,12,11.3,12z"/>
				<path class="st0" d="M11.3,12.1L11.3,12.1L11.3,12.1z"/>
				<path class="st0" d="M11.2,12.5c-0.1-0.1-0.1-0.2-0.2-0.1C11.1,12.5,11.1,12.4,11.2,12.5z"/>
				<path class="st0" d="M11.2,12.1v0.1h0.1L11.2,12.1z"/>
				<path class="st0" d="M11.2,12.1L11.2,12.1L11.2,12.1z"/>
				<path class="st0" d="M11.4,11.6c0,0-0.1-0.1-0.1-0.2C11.3,11.5,11.3,11.5,11.4,11.6C11.3,11.6,11.4,11.6,11.4,11.6z"/>
				<path class="st0" d="M11.3,11.8L11.3,11.8L11.3,11.8z"/>
				<path class="st0" d="M11.3,10.9L11.3,10.9L11.3,10.9z"/>
				<path class="st0" d="M11.3,11.6C11.2,11.6,11.3,11.7,11.3,11.6C11.3,11.7,11.3,11.6,11.3,11.6L11.3,11.6z"/>
				<path class="st0" d="M11.4,11.2C11.4,11.3,11.4,11.3,11.4,11.2C11.4,11.3,11.5,11.2,11.4,11.2z"/>
				<path class="st0" d="M11.4,11.8L11.4,11.8L11.4,11.8z"/>
				<path class="st0" d="M11.4,11.8C11.4,11.7,11.3,11.7,11.4,11.8C11.3,11.7,11.3,11.8,11.4,11.8C11.3,11.8,11.4,11.8,11.4,11.8z"
					/>
				<path class="st0" d="M10.6,10.7c0.1,0,0.2,0.1,0.1,0.2c0.1,0.1,0.4,0,0.6-0.1c0,0-0.1,0-0.1-0.1c-0.1,0-0.1,0.2-0.2,0.1
					c-0.1-0.1,0-0.1,0.1-0.2c-0.1,0.1-0.2-0.2-0.4-0.1L10.6,10.7C10.7,10.7,10.7,10.7,10.6,10.7z"/>
				<path class="st0" d="M11.3,11.1L11.3,11.1c0,0,0.1,0,0.1-0.1s-0.1-0.1-0.1-0.1V11.1L11.3,11.1z"/>
				<path class="st0" d="M11.3,11.3c-0.1,0-0.2-0.1-0.3-0.1c0,0.1,0.1,0.1,0.1,0.2C11.1,11.2,11.2,11.4,11.3,11.3v0.1
					C11.3,11.4,11.3,11.3,11.3,11.3L11.3,11.3L11.3,11.3L11.3,11.3L11.3,11.3L11.3,11.3L11.3,11.3C11.3,11.2,11.3,11.3,11.3,11.3
					L11.3,11.3L11.3,11.3v-0.2C11.3,11.2,11.3,11.2,11.3,11.3z"/>
				<path class="st0" d="M10.8,12.3L10.8,12.3L10.8,12.3z"/>
				<path class="st0" d="M10.8,12.2C10.8,12.3,10.9,12.3,10.8,12.2C10.8,12.4,10.8,12.3,10.8,12.2C10.8,12.3,10.9,12.4,10.8,12.2
					L10.8,12.2c0.1,0,0.2-0.1,0.3-0.1C11,12.2,10.9,12.2,10.8,12.2z"/>
				<path class="st0" d="M11,11.8v-0.2l-0.1,0.1L11,11.8C10.9,11.8,11,11.8,11,11.8z"/>
				<polygon class="st0" points="11.4,10.8 11.5,10.9 11.3,10.8 				"/>
				<path class="st0" d="M11.4,10.6h0.1H11.4z"/>
				<path class="st0" d="M5,3.1L5,3.1L5,3.1z"/>
				<path class="st0" d="M5,3L5,3C4.9,3,5,3,5,3z"/>
				<path class="st0" d="M10.1,5.1c0-0.1,0.1-0.3,0-0.2L10,5C10.1,5,10.1,5.1,10.1,5.1z"/>
				<path class="st0" d="M7,2.9L7,2.9C7,2.9,7.1,2.8,7,2.9C7.1,2.8,7,2.8,7,2.9z"/>
				<path class="st0" d="M6.7,3.2L6.7,3.2L6.7,3.2z"/>
				<path class="st0" d="M5.1,4.8L5.1,4.8C5.2,4.8,5.1,4.8,5.1,4.8z"/>
				<path class="st0" d="M11.2,8.3c0-0.1,0-0.1,0-0.2C11.2,8.2,11.1,8.3,11.2,8.3z"/>
				<path class="st0" d="M3.8,2.4C3.8,2.5,3.8,2.5,3.8,2.4C3.9,2.4,3.8,2.4,3.8,2.4z"/>
				<path class="st0" d="M11.2,7.9L11.2,7.9c0,0.1,0,0.1,0,0.2C11.2,8,11.3,8,11.2,7.9z"/>
				<path class="st0" d="M5,11.9L5,11.9L5,11.9z"/>
				<path class="st0" d="M3.9,14L3.9,14C3.9,13.9,3.9,14,3.9,14z"/>
				<path class="st0" d="M11.4,9.7C11.4,9.8,11.4,9.7,11.4,9.7L11.4,9.7z"/>
				<path class="st0" d="M11,10C11,10,10.9,9.9,11,10C10.9,9.9,11,10,11,10z"/>
				<path class="st0" d="M10.4,7.6L10.4,7.6L10.4,7.6z"/>
				<path class="st0" d="M11.3,9.8C11.4,9.8,11.4,9.8,11.3,9.8C11.4,9.7,11.4,9.8,11.3,9.8z"/>
				<path class="st0" d="M11.4,9.8L11.4,9.8L11.4,9.8z"/>
				<path class="st0" d="M11.4,9.7L11.4,9.7L11.4,9.7L11.4,9.7z"/>
				<path class="st0" d="M4.7,8.1L4.7,8.1C4.7,8.2,4.7,8.1,4.7,8.1z"/>
				<path class="st0" d="M8.5,4.7L8.5,4.7L8.5,4.7z"/>
				<path class="st0" d="M8.3,4.7c0.1,0,0.2,0,0.2,0.1l0.2-0.2L8.3,4.7z"/>
				<path class="st0" d="M5,3.7L5,3.7c0.3,0,0.2,0.1,0.3,0C5,3.7,5.3,3.2,5,3.3c0,0,0,0,0.1,0l0,0c0.2,0-0.2-0.1-0.2-0.2H5L4.9,3H5
					V2.9l0,0c-0.1,0-0.2-0.1-0.3-0.2c0,0,0,0.1,0.1,0.1L4.7,2.7c0.1,0.1,0.1,0.2,0.1,0.2c0.4,0.3,0-0.1,0.3,0.1l0,0
					c0.2,0.2,0.1,0.1,0.2,0.3C5.3,3.2,5.1,3,5,2.9h0.1C5.2,3,5.2,3,5.2,3l0.1,0.2c0,0,0-0.1,0-0.2c0.1,0,0.1,0.1,0.1,0.3V3.1
					c0.1,0.1,0.2,0,0.3,0c0.1,0.1,0,0.1,0,0.1l0.1-0.1c0,0,0,0,0,0.1C5.9,3.2,5.8,3,6,3c0-0.4,0.1,0.1,0.3,0c0,0.1,0,0.1-0.1,0.1
					C6.4,3,6.4,3.1,6.6,3l0.1,0.2C6.7,3,6.8,2.9,7,2.9c0-0.1,0-0.1,0-0.2h0.2c0,0,0,0.1-0.1,0.1l0,0C7.2,2.9,7.1,3,7,3V2.9
					C6.9,3,6.8,3,6.8,3.1c0,0,0,0,0.1,0c0,0,0,0,0,0.1c0,0,0,0,0.1,0v0.2V3.3v0.2c0.2-0.1,0.5-0.2,0.8-0.1c-0.2,0-0.2,0.1-0.3,0.2
					c0-0.2-0.2-0.1-0.3-0.2c0,0.1,0,0.1,0,0.1c0.1,0,0.2,0,0.3,0c-0.1,0.1,0,0.1,0,0.2c0.1-0.2,0.2,0,0.4,0c-0.1,0.1-0.1,0.1-0.2,0
					C7.6,4,8,3.7,8,3.9c0,0,0,0-0.1,0C8,3.9,8.1,4,8,4.1l0,0c0.1,0.1,0.4,0.4,0.6,0.3c0,0-0.2,0.1-0.3,0.2c0.3-0.1,0.5-0.1,0.8-0.2
					c-0.2,0-0.4,0.4-0.6,0.3c0,0.1,0,0.1,0.1,0.2l0.2-0.2C8.7,4.9,8.8,4.8,8.7,5L9,4.9c0,0-0.2,0.2-0.3,0.2H9c0,0-0.1,0.1-0.1,0.2
					c0,0,0.1,0.1,0.1,0.2V5.4c0.1,0.2,0.4,0,0.5,0.2c-0.1,0-0.3,0.1-0.3,0.2c0.2,0,0.7-0.1,0.9,0L10,5.9L10.2,6c-0.2,0-0.8,0-1-0.1
					c0,0.1-0.1,0.1,0,0.2L9.1,6l0.1,0.3c0.1-0.1,0.2,0.1,0.4,0L9.2,6.1c0.1-0.1,0.5,0,0.6,0.1c0,0.1-0.3,0.1-0.3,0.1
					c0.1,0,0.2,0.1,0.1,0.2H9.5c0,0.1,0.3,0.1,0.2,0.3c0,0-0.2,0.2-0.1,0.2c0.2-0.1,0.7-0.4,0.9-0.4c0,0-0.1,0.3-0.2,0.4
					c-0.1,0.1-0.4,0-0.5,0.1h0.1c0,0.1-0.1,0-0.1,0.1c0.2,0,0,0.2,0.2,0c0.1,0.1,0,0.1,0,0.2c0.1-0.1,0.4,0,0.5,0.1
					c0,0-0.1,0-0.1,0.1c0,0.2,0,0.3,0,0.5l-0.1,0.1c0,0,0.1,0,0.1,0.1c-0.1,0.1,0-0.1-0.2,0c0.1,0,0.2,0.1,0.2,0.2
					c0.2-0.1,0-0.2-0.1-0.3c0.2,0,0.5,0.1,0.6,0.3s-0.1,0.1-0.1,0.1c0,0.3,0.4,0.2,0.3,0.5c-0.1,0.1-0.3,0-0.4,0.1
					c-0.1-0.1,0.1-0.2,0-0.3V9c0,0-0.1-0.1-0.1-0.2c-0.1,0.1,0,0.5-0.1,0.8l0.1,0.1V9.6c0.1-0.1,0.2,0.1,0.2,0
					c0.1,0.1,0.2,0.2,0.1,0.4h-0.2c0,0,0.1-0.1,0-0.1c0.1,0.1-0.2,0.2,0,0.3l0.1-0.1c0.1,0.1,0.2,0.2,0.2,0.4c0.2-0.1,0,0,0.2-0.1
					c-0.2,0.1,0-0.3-0.2-0.2c0.2-0.1,0.1-0.2,0.3-0.3c-0.1,0-0.1,0-0.1-0.1l0,0l0,0l0,0l0,0c0,0,0,0.1-0.1,0.1
					C11,9.8,11,9.7,10.9,9.6c0-0.1,0.1,0,0.1,0l-0.1-0.1c0.1,0,0.2-0.2,0.3,0V9.4c0.1-0.1,0.1-0.2,0-0.3c0-0.1-0.1-0.2,0-0.1
					l-0.1-0.2l0,0c0-0.2-0.2-0.4-0.1-0.7C11,8,10.9,8,10.9,7.8H11c0-0.1,0-0.3-0.1-0.3C11.3,7.1,11,6.8,11,6.7h-0.1
					c0-0.1-0.1-0.2-0.2-0.3h-0.1c-0.1-0.1,0-0.3-0.1-0.5c0,0,0.1,0,0,0.1c0.1-0.3-0.4-0.4-0.3-0.7c-0.1,0-0.1-0.1-0.1-0.1l0,0l0,0
					V5.1v0.1L10,5.1V5l0,0c0-0.1,0,0-0.1,0H9.8c0.1-0.1-0.1-0.1,0-0.3c-0.1,0-0.2-0.2-0.4-0.1l0,0c0-0.1,0-0.1-0.1-0.2l0.1-0.1H9.1
					c0-0.1,0-0.2,0.2-0.2C9,4.1,9.2,4.1,8.9,4H9c0,0-0.2,0-0.2-0.1c0-0.2-0.5-0.5-0.7-0.9C8,3.2,8,2.7,7.9,2.9c0-0.1,0-0.1,0.1-0.1
					C7.8,2.7,7.8,2.5,7.6,2.6c0-0.1,0.1-0.1,0.1-0.1H7.6h0.1c-0.2-0.2-0.3,0-0.4,0.1c0-0.1-0.1-0.1-0.2-0.1c0-0.1,0-0.2,0.1-0.1
					c-0.1,0-0.4-0.3-0.4-0.1H6.7C6.5,2.2,6.5,2.2,6.3,2.2l0,0c-0.1,0.2-0.1,0-0.3,0l0,0C5.8,2,6,2.2,5.7,2v0.1
					C5.6,2.4,5.5,1.9,5.3,2l0.1,0.1C5.3,2.2,5,1.7,4.8,1.7c0,0,0,0,0.1,0c-0.4-0.2,0,0.2-0.2,0.2c-0.1-0.1,0-0.2-0.2-0.2
					c-0.2-0.2-0.4,0.1-0.7,0c0,0,0.1,0,0.1,0.1c0,0,0,0.1,0.1,0.1c0,0.2-0.3,0.3-0.1,0.6c0,0,0,0-0.1,0C3.9,2.6,4,2.9,4.1,3
					C3.9,3,3.9,3.3,4,3.4c0,0.1,0.1,0.2-0.1,0.2v0.3l0,0c0,0.2,0.1,0.2,0.2,0.3H4C3.9,4.5,3.9,4.5,4.1,4.7H4c0.1,0.1-0.2,0.4,0,0.6
					c0,0,0,0-0.1,0C4,5.6,3.5,6,4,6.1l0.1,0.2c0-0.2,0.2,0,0.3-0.1c0,0.1-0.1,0.2-0.2,0.1l0,0C4,6.3,4.1,6.6,4,6.6
					c0,0.5-0.1,1-0.2,1.4H4v0.2c0,0-0.1,0.1-0.1-0.1C3.8,8.1,4,8.3,4,8.3c-0.1,0.2-0.2-0.1-0.2,0v0.1l0,0c0.1,0,0.2,0,0.2,0.1
					s-0.1,0-0.1,0.1c0,0,0,0,0,0.1v0.2L4,8.8c0,0,0,0.1,0.1,0.1C3.9,9,4,9.6,4,9.7c0.1,0.1,0.1,0.2,0.1,0.4c0,0,0.2-0.1,0.2,0.1
					c-0.3,0-0.1,0.2-0.4,0.3c0.2-0.1,0,0.4,0.3,0.2c0,0.1-0.1,0-0.2,0.1c0.1,0.3-0.1,0.6,0,0.9c0,0,0.1,0,0.2,0L4,11.9
					C4,12,4.3,12,4.1,12.1C4,12,4,12,4,12c-0.2,0.6,0.2,1.3-0.2,1.9c0.1-0.1,0.1,0,0.1,0s0.1,0,0.2,0l-0.2,0.3c0.2,0,0,0.3,0.2,0.3
					v-0.1c0.2,0.1,0.4-0.2,0.7-0.1c-0.2-0.1,0.3-0.3,0-0.5h0.1c-0.1-0.1-0.1-0.1-0.1-0.2l0,0c0-0.3,0.1-0.5,0.1-0.8H4.8
					c0-0.1,0.1-0.1,0.1-0.1c-0.2-0.1,0,0.2-0.2,0.1c0.2-0.1,0-0.5,0.3-0.6c0-0.1-0.1,0-0.1-0.1H5H4.9C4.9,12,5,12,5.1,12v0.1
					c0.1-0.1,0-0.3,0-0.3v0.1c-0.1-0.3,0-0.7-0.1-1H4.9c-0.1-0.2,0.1-0.2,0-0.5l0,0c-0.1-0.1-0.1-0.1-0.1-0.2c0.1,0.1,0.1-0.1,0.2,0
					C4.8,9.8,4.8,9.9,4.6,9.7h0.1C4.6,9.6,4.6,9.6,4.6,9.5c0.1,0.1,0.1-0.1,0.2,0C5,9.2,4.6,9.1,4.9,9C4.6,8.9,4.8,9.2,4.7,9.1
					C4.6,9.2,4.5,9,4.5,9c0-0.1,0.3-0.2,0.3-0.4l0,0c0.1-0.1-0.1-0.2,0-0.3c-0.2-0.1,0-0.1-0.2-0.1v0.2c0.1-0.1-0.1-0.2,0-0.4
					l0.1,0.1c0.1-0.1,0-0.1,0-0.2c0.2,0,0,0.2,0.2,0.4C5,8.3,4.8,8.1,5,8.1c-0.3,0,0-0.2-0.2-0.3h0.1L4.8,7.7H5
					C4.9,7.6,5.1,7.5,5,7.3c0,0.2-0.1,0.1-0.2,0.2C4.7,7.3,5.1,7.4,5.1,7C5.1,7,5,7.2,5,7.1C5,7.1,5,7,5.1,7c0-0.2-0.1,0-0.2-0.1
					C5,6.8,4.8,6.8,4.8,6.7h0.1C5,6.4,4.7,6.6,4.8,6.4L5,6.5V6.4h0.1C4.9,6.3,4.9,6.2,5,6.1c-0.1,0-0.2,0-0.2-0.1
					c0.1-0.1,0.1,0,0.1-0.1c0,0,0.1,0,0,0.1H5c0.1-0.1,0-0.2,0-0.3c0,0,0,0,0,0.1L4.8,5.6h0.1L4.8,5.5c0.1,0,0.2,0,0.2,0.1V5.4
					c0,0,0.1-0.1,0.2-0.1C5.2,5.1,5,5,5.1,4.8c0,0,0,0-0.1-0.1c0-0.2,0.1-0.3,0-0.5l0.2-0.1C5.1,4,5,4.3,4.9,4.1
					C4.8,3.9,5,4,5.1,3.9C5,3.9,4.8,3.7,5,3.6V3.7z M5,2.8C5,2.9,5.1,3,5,2.8C4.9,2.7,5,2.8,5,2.8z M7.1,3.2C7.1,3.2,7,3.2,7.1,3.2
					C7,3.1,7.1,3.1,7.1,3.2z M11.3,9.2L11.3,9.2C11.3,9.1,11.3,9.1,11.3,9.2z M11.2,9.4C11.2,9.4,11.3,9.4,11.2,9.4
					C11.2,9.4,11.2,9.3,11.2,9.4C11.2,9.3,11.2,9.3,11.2,9.4z M3.9,8.6L3.9,8.6C4,8.7,3.9,8.6,3.9,8.6z"/>
				<path class="st0" d="M6.8,3.2L6.8,3.2C6.8,3.1,6.8,3.2,6.8,3.2z"/>
				<path class="st0" d="M5.1,4.8L5.1,4.8L5.1,4.8z"/>
				<path class="st0" d="M9.8,7.1L9.8,7.1L9.8,7.1z"/>
				<path class="st0" d="M11.5,10.2v-0.1C11.4,10.2,11.4,10.2,11.5,10.2C11.4,10.2,11.5,10.2,11.5,10.2z"/>
				<path class="st0" d="M10.7,11.1L10.7,11.1L10.7,11.1C10.8,11.1,10.7,11,10.7,11.1z"/>
				<path class="st0" d="M11.1,10.3c-0.1,0-0.1,0.1,0,0.1l0,0C11.1,10.5,11.1,10.4,11.1,10.3z"/>
				<path class="st0" d="M11,10.5L11,10.5C11.1,10.5,11,10.5,11,10.5z"/>
				<path class="st0" d="M11.3,9.6C11.3,9.6,11.4,9.6,11.3,9.6C11.5,9.6,11.2,9.4,11.3,9.6z"/>
				<polygon class="st0" points="10.7,10.4 10.8,10.3 10.7,10.3 				"/>
				<path class="st0" d="M10.8,9.8v0.1l0,0C10.8,9.9,10.8,9.8,10.8,9.8z"/>
				<path class="st0" d="M10.8,10L10.8,10L10.8,10z"/>
				<polygon class="st0" points="10.7,10.2 10.7,10.2 10.7,10.1 				"/>
				<path class="st0" d="M10.7,8.6l-0.1-0.1C10.6,8.5,10.6,8.5,10.7,8.6L10.7,8.6z"/>
				<path class="st0" d="M10.4,9C10.5,9,10.5,9,10.4,9L10.4,9L10.4,9z"/>
				<path class="st0" d="M10.4,8.7c0,0-0.1-0.2-0.1,0C10.3,8.7,10.3,8.8,10.4,8.7z"/>
				<polygon class="st0" points="10.1,6.8 10.1,6.9 10.4,6.8 				"/>
				<path class="st0" d="M8.9,5.7c0,0.1,0.2-0.1,0.1,0.1c0.1,0,0-0.1,0.1-0.1C9,5.6,9,5.6,8.9,5.7z"/>
				<path class="st0" d="M9.1,5.6C9.1,5.7,9.2,5.7,9.1,5.6C9.2,5.7,9.1,5.6,9.1,5.6z"/>
				<polygon class="st0" points="3.8,14.3 3.7,14.4 3.8,14.4 				"/>
				<path class="st0" d="M4,14.5H3.8H4C3.9,14.6,3.9,14.5,4,14.5z"/>
				<path class="st0" d="M5.3,3.2L5.3,3.2C5.3,3.1,5.3,3.1,5.3,3.2L5.3,3.2z"/>
				<polygon class="st0" points="5.1,3.2 5.1,3.2 5,3.2 				"/>
				<path class="st0" d="M5.3,4L5.3,4C5.3,4,5.1,4,5.3,4z"/>
			</g>
			<g>
				<path class="st0" d="M11.4,14.8h0.1C11.5,14.7,11.4,14.8,11.4,14.8z"/>
				<polygon class="st0" points="11.2,14.1 11.2,14.1 11.1,14 				"/>
				<path class="st0" d="M11.2,13.5c-0.2,0.1,0,0.2,0,0.3l0,0l0.1,0.1C11.2,13.7,11.1,13.6,11.2,13.5z"/>
				<path class="st0" d="M11.6,13.1C11.5,13.1,11.5,13,11.6,13.1C11.6,13.2,11.6,13.2,11.6,13.1C11.6,13.2,11.6,13.1,11.6,13.1z"/>
				<path class="st0" d="M11.6,13.2C11.6,13.2,11.6,13.1,11.6,13.2L11.6,13.2z"/>
				<path class="st0" d="M11.5,12.9L11.5,12.9c0.1,0.1,0.1,0,0.1,0C11.6,12.8,11.6,12.8,11.5,12.9z"/>
				<path class="st0" d="M11.4,12.8L11.4,12.8L11.4,12.8z"/>
				<path class="st0" d="M11.5,12.9L11.5,12.9C11.4,12.8,11.3,12.8,11.5,12.9C11.4,12.9,11.4,12.9,11.5,12.9z"/>
				<path class="st0" d="M11.5,13c0,0-0.1,0.1-0.1,0C11.4,13.2,11.5,13.2,11.5,13z"/>
				<path class="st0" d="M11,13.4L11,13.4v0.1C11,13.5,11.1,13.4,11,13.4z"/>
				<path class="st0" d="M11.6,12.3h-0.1v0.1C11.5,12.4,11.6,12.3,11.6,12.3z"/>
				<path class="st0" d="M11.5,12.3L11.5,12.3C11.4,12.3,11.4,12.4,11.5,12.3z"/>
				<polygon class="st0" points="11.2,12.8 11.3,12.9 11.2,12.7 				"/>
				<path class="st0" d="M11.6,11.9l0.1,0.1L11.6,11.9z"/>
				<path class="st0" d="M11.6,11.7c0.1,0,0.1-0.1,0.2,0c0-0.1-0.1-0.1-0.1-0.2C11.7,11.6,11.7,11.6,11.6,11.7z"/>
				<path class="st0" d="M11.6,11.4C11.6,11.4,11.6,11.5,11.6,11.4C11.6,11.5,11.6,11.4,11.6,11.4z"/>
				<path class="st0" d="M11.4,12.1c0,0,0.1,0,0.1-0.1L11.4,12.1L11.4,12.1z"/>
				<path class="st0" d="M11.4,12L11.4,12L11.4,12L11.4,12z"/>
				<path class="st0" d="M11.4,12.1L11.4,12.1L11.4,12.1z"/>
				<path class="st0" d="M11.3,12.5c-0.1-0.1-0.1-0.2-0.2-0.1C11.2,12.5,11.2,12.4,11.3,12.5z"/>
				<path class="st0" d="M11.3,12.1v0.1h0.1L11.3,12.1z"/>
				<path class="st0" d="M11.3,12.1L11.3,12.1L11.3,12.1z"/>
				<path class="st0" d="M11.5,11.6c0,0-0.1-0.1-0.1-0.2C11.4,11.5,11.4,11.6,11.5,11.6C11.4,11.6,11.5,11.7,11.5,11.6z"/>
				<path class="st0" d="M11.4,11.8L11.4,11.8L11.4,11.8z"/>
				<path class="st0" d="M11.4,10.9L11.4,10.9L11.4,10.9z"/>
				<path class="st0" d="M11.4,11.6C11.3,11.7,11.4,11.7,11.4,11.6C11.4,11.7,11.4,11.7,11.4,11.6L11.4,11.6z"/>
				<path class="st0" d="M11.5,11.3L11.5,11.3L11.5,11.3z"/>
				<path class="st0" d="M11.5,11.8L11.5,11.8L11.5,11.8z"/>
				<path class="st0" d="M11.5,11.8C11.4,11.8,11.4,11.7,11.5,11.8C11.4,11.8,11.4,11.8,11.5,11.8C11.4,11.8,11.5,11.8,11.5,11.8z"
					/>
				<path class="st0" d="M10.7,10.7c0.1,0,0.2,0.1,0.1,0.2c0.1,0.1,0.4,0,0.6-0.1c0,0-0.1,0-0.1-0.1c-0.1,0-0.1,0.2-0.2,0.1
					c-0.1-0.1,0-0.1,0.1-0.2c-0.1,0.1-0.2-0.2-0.4-0.1L10.7,10.7C10.8,10.7,10.8,10.7,10.7,10.7z"/>
				<path class="st0" d="M11.4,11.1L11.4,11.1c0,0,0.1,0,0.1-0.1s-0.1-0.1-0.1-0.1V11.1L11.4,11.1z"/>
				<path class="st0" d="M11.4,11.3c-0.1,0-0.2-0.1-0.3-0.1c0,0.1,0.1,0.1,0.1,0.2C11.2,11.2,11.3,11.5,11.4,11.3v0.1
					C11.4,11.4,11.4,11.4,11.4,11.3L11.4,11.3L11.4,11.3L11.4,11.3L11.4,11.3L11.4,11.3L11.4,11.3L11.4,11.3L11.4,11.3L11.4,11.3
					v-0.2C11.4,11.2,11.4,11.2,11.4,11.3z"/>
				<path class="st0" d="M10.9,12.3L10.9,12.3L10.9,12.3z"/>
				<path class="st0" d="M10.9,12.3C10.9,12.3,11,12.3,10.9,12.3C10.9,12.4,10.9,12.3,10.9,12.3C10.9,12.4,11,12.4,10.9,12.3
					L10.9,12.3c0.1,0,0.2-0.1,0.3-0.1C11.1,12.2,11,12.2,10.9,12.3z"/>
				<path class="st0" d="M11.1,11.8L11,11.6v0.1L11.1,11.8C11,11.8,11.1,11.8,11.1,11.8z"/>
				<polygon class="st0" points="11.5,10.9 11.6,10.9 11.4,10.8 				"/>
				<path class="st0" d="M11.5,10.6l0.1,0.1L11.5,10.6z"/>
				<path class="st0" d="M17.5,2.7L17.5,2.7C17.6,2.7,17.6,2.7,17.5,2.7z"/>
				<path class="st0" d="M17.5,2.1L17.5,2.1L17.5,2.1z"/>
				<path class="st0" d="M12.5,5.8c0.1,0,0.3,0,0.2-0.1L12.5,5.8C12.5,5.7,12.5,5.7,12.5,5.8z"/>
				<path class="st0" d="M14.4,2.8L14.4,2.8C14.4,2.8,14.4,2.9,14.4,2.8C14.4,2.9,14.4,2.8,14.4,2.8z"/>
				<path class="st0" d="M14.2,2.4h0.1C14.3,2.4,14.3,2.4,14.2,2.4z"/>
				<path class="st0" d="M17.7,4.9L17.7,4.9C17.8,4.8,17.7,4.9,17.7,4.9z"/>
				<path class="st0" d="M11.5,8.5c0.1-0.1,0.1-0.1,0.1-0.1C11.5,8.4,11.4,8.5,11.5,8.5z"/>
				<path class="st0" d="M16.4,3.1L16.4,3.1L16.4,3.1z"/>
				<path class="st0" d="M11.7,8.2C11.6,8.2,11.6,8.2,11.7,8.2c0,0.1,0,0.1,0,0.2C11.7,8.3,11.7,8.3,11.7,8.2z"/>
				<path class="st0" d="M17.6,11.9L17.6,11.9C17.6,12,17.6,12,17.6,11.9z"/>
				<path class="st0" d="M16.5,14C16.4,14,16.4,14,16.5,14C16.4,13.9,16.4,14,16.5,14z"/>
				<path class="st0" d="M11.5,9.8L11.5,9.8L11.5,9.8z"/>
				<path class="st0" d="M11.1,10C11.1,10,11,10,11.1,10C11,10,11.1,10,11.1,10z"/>
				<path class="st0" d="M11.1,7.6L11.1,7.6L11.1,7.6z"/>
				<path class="st0" d="M11.5,9.8L11.5,9.8L11.5,9.8z"/>
				<path class="st0" d="M11.5,9.8C11.5,9.9,11.5,9.9,11.5,9.8C11.5,9.9,11.5,9.9,11.5,9.8z"/>
				<path class="st0" d="M11.5,9.7C11.5,9.7,11.5,9.8,11.5,9.7C11.5,9.8,11.5,9.8,11.5,9.7C11.5,9.8,11.5,9.8,11.5,9.7z"/>
				<path class="st0" d="M17.3,8.2L17.3,8.2L17.3,8.2z"/>
				<path class="st0" d="M12.2,4.1L12.2,4.1L12.2,4.1z"/>
				<path class="st0" d="M12.2,4c0.1,0.1,0,0.2,0,0.2l0.3,0.1L12.2,4z"/>
				<path class="st0" d="M17.6,3.8l0.1-0.1c0.2,0.1,0.1,0.2,0.2,0.1c-0.3,0,0-0.5-0.4-0.5c0,0,0-0.1,0.1-0.1c0,0,0,0,0,0.1
					c0.2-0.3-0.2-0.2-0.2-0.5c0-0.1,0.1-0.2,0.1-0.1l-0.1-0.2c0-0.1,0.1-0.1,0.1,0V2.2l0,0c-0.1,0-0.1,0-0.2-0.1c0-0.1,0,0,0.1,0
					L17.3,2c0.1-0.2,0.2-0.1,0.2,0.1c0.3-0.5,0.1-0.2-0.2-0.4h0.2c0-0.2-0.2-0.1-0.4-0.2c0,0.1,0.3,0.3,0,0.4c0,0-0.1,0-0.3,0
					c0.1-0.1-0.1-0.1-0.2-0.1l0.1-0.2c-0.2,0.1-0.2,0.1-0.3,0.2c-0.2,0-0.2-0.1-0.2-0.2c-0.3,0,0.2,0.2-0.2,0.2
					c-0.2,0-0.4,0.1-0.5,0.2c-0.1,0,0-0.1-0.1-0.1L15.3,2c0,0,0,0,0-0.1c-0.1,0.1,0,0.2-0.1,0.2c0,0.2-0.3-0.2-0.4,0.1
					c-0.1,0,0-0.1-0.1-0.2c-0.2,0.2-0.1,0.2-0.2,0.4h-0.2c0.2,0.1,0.1,0.2,0,0.4c0.1,0,0.1,0.1,0.1,0.1V3V2.9l0,0
					c-0.1,0-0.1-0.1-0.1-0.2l0.1,0.1c0-0.1,0-0.2-0.1-0.3c0,0,0,0,0,0.1V2.5c0,0,0,0,0,0.1l-0.1-0.1v0.1h-0.3
					c-0.1,0.3-0.1,0.5-0.2,0.8c0-0.1-0.1-0.2-0.2-0.3c0.2,0.1,0.1-0.2,0.3-0.3c-0.1,0-0.1,0-0.1-0.1c-0.1,0.1-0.1,0.2-0.1,0.3
					c-0.1-0.1-0.1,0-0.2,0c0.2,0.2-0.1,0.3-0.1,0.4c-0.1-0.1-0.1-0.1,0-0.2c-0.2,0,0,0.3-0.2,0.3c0,0,0,0,0-0.1
					c0,0.1-0.2,0.2-0.2,0.1l0,0c-0.2,0.1-0.5,0.5-0.3,0.6l-0.2-0.2c0.1,0.3,0.2,0.5,0.3,0.7c-0.1-0.1-0.6-0.3-0.5-0.5
					c-0.1,0-0.1,0.1-0.1,0.2c0,0,0.3,0.1,0.2,0.1c-0.2,0-0.1,0-0.4,0c0.1,0,0.3,0.2,0.2,0.2l-0.2-0.2L12,4.9c0-0.1-0.2-0.1-0.3-0.1
					c0.1,0-0.1,0.2-0.1,0.2h0.1c-0.2,0.2,0.2,0.4,0.1,0.6c0,0-0.3-0.2-0.4-0.1c0.2,0,0.6,0.4,0.6,0.6h-0.1v0.2
					c-0.2-0.2-0.5-0.6-0.6-0.8c-0.1,0.1-0.1,0-0.1,0.1c-0.1,0-0.1-0.1-0.1-0.2L11,5.7c0.1,0,0,0.3,0.2,0.3V5.6
					c0.2,0.1,0.4,0.4,0.2,0.5c-0.1,0-0.3-0.2-0.3-0.2v0.2H11c-0.1,0.1,0.1,0.3-0.1,0.3c0,0-0.3,0.1-0.2,0.1c0.2,0,0.8,0.2,0.9,0.3
					c0,0-0.3,0.2-0.4,0.2c-0.2,0-0.3-0.2-0.5-0.2l0.1,0.1c-0.1,0-0.1-0.1-0.1,0.1c0.2,0.1-0.1,0.2,0.1,0.1c0,0.1-0.1,0.1-0.1,0.2
					c0.1,0,0.3,0.2,0.4,0.3H11c-0.1,0.2-0.2,0.3-0.2,0.5c0,0-0.1,0.1-0.2,0l0.1,0.1c-0.2,0.1,0-0.1-0.2-0.1c0.1,0,0.1,0.2,0.2,0.3
					c0.2,0,0.1-0.2,0-0.3c0.2,0,0.4,0.2,0.5,0.4c0,0.2-0.1,0.1-0.1,0.1C11,9.1,11.4,9,11.3,9.3c-0.1,0.1-0.3,0-0.4,0
					C10.9,9.1,11,9.1,11,9l-0.1,0.1c0,0-0.1-0.1,0-0.2c-0.1,0.1-0.1,0.5-0.2,0.8l0.1,0.1V9.7c0.2-0.1,0.2,0.1,0.3,0
					c0.1,0.1,0.2,0.2,0.1,0.4H11c0,0,0.1-0.1,0-0.1c0.1,0.1-0.2,0.2,0,0.3l0.1-0.1c0.1,0.1,0.2,0.2,0.2,0.4c0.2-0.1,0,0,0.2-0.1
					c-0.2,0.1,0-0.3-0.2-0.2c0.2-0.1,0.1-0.2,0.3-0.3c-0.1,0-0.1,0-0.1-0.1l0,0l0,0l0,0l0,0c0,0-0.1,0-0.1,0.1
					c-0.1-0.1-0.1-0.2-0.2-0.3c0-0.1,0.1,0,0.1,0l-0.1-0.1c0.1,0,0.2-0.2,0.3,0V9.5c0.1-0.1,0.1-0.2,0.1-0.2c0-0.1-0.1-0.2,0-0.1V9
					l0,0c0-0.2-0.1-0.4,0.1-0.6c0-0.1,0-0.1,0-0.2h0.1c0-0.1,0.1-0.2,0.1-0.3c0.3,0,0.2-0.4,0.2-0.5H12c0-0.1,0-0.2,0-0.3h-0.1
					c0-0.1,0.2-0.2,0.2-0.4v0.1c0.3-0.1,0-0.5,0.3-0.6c0-0.1,0-0.1,0.1-0.1l0,0l0,0h0.1h-0.1V6h0.1l0,0c0.1,0,0-0.1-0.1-0.1V5.8
					c0.2,0.1,0-0.2,0.2-0.1c-0.1-0.1,0.1-0.3-0.1-0.4l0,0c0.1,0,0.1-0.1,0.1-0.2l0.1,0.1L12.7,5c0.1,0,0.2,0,0.2,0.1
					c0-0.3,0-0.2,0-0.4L13,4.5c0,0,0-0.2,0.1-0.2c0.2,0,0.5-0.5,0.8-0.5c-0.2-0.2,0.2,0,0.1-0.2c0.1,0,0.1,0,0.1,0.1
					c0.1-0.2,0.3,0,0.3-0.3c0.1,0,0,0.1,0.1,0.1V3.4v0.1c0.1-0.1,0-0.3-0.1-0.5c0.1,0,0.2,0,0.2-0.1c0.1,0,0.1,0.1,0,0.2
					c0.1,0,0.4-0.1,0.3-0.2H15c0.1,0,0.1,0,0.3-0.1l0,0c0-0.2,0.1-0.1,0.2-0.1l0,0c0.3,0.1,0.1-0.1,0.4,0V2.6c0-0.3,0.2,0.1,0.3,0
					V2.5c0.1-0.1,0.1,0.3,0.1,0.4c0,0,0,0,0,0.1c0,0.2,0.1-0.2,0.2-0.2c0,0.1-0.1,0.2-0.1,0.2s0,0,0.1-0.1s0.2-0.1,0.1,0
					c0.1-0.1,0.1-0.2,0.2-0.2c0,0.1-0.2,0.3,0,0.3c0,0,0,0-0.1,0c0.1,0,0.1,0.1,0.2,0.1c-0.4,0,0.2,0.5-0.2,0.5v0.3l0,0
					c0,0.2,0.1,0.2,0.2,0.3h-0.1c-0.1,0.3-0.1,0.3,0.1,0.5h-0.1c0.1,0.1-0.2,0.4-0.1,0.6c0,0,0,0-0.1,0c0.1,0.3-0.3,0.7,0.1,0.8
					l0.1,0.2c0-0.2,0.2,0,0.3-0.1c0,0.1-0.1,0.2-0.2,0.1l0,0c-0.2,0-0.1,0.3-0.2,0.3c0,0.5-0.1,0.9-0.1,1.4l0,0v0.2
					c0,0-0.1,0.1-0.1-0.1c-0.1,0.1,0.1,0.2,0.1,0.2c-0.1,0.2-0.2-0.1-0.2,0v0.1l0,0c0.1,0.1,0.2,0.1,0.1,0.2c0,0.1-0.1,0-0.1,0.1
					c0,0,0,0,0,0.1V9l0.1-0.1c0.1,0.1,0,0.2,0.2,0.1c-0.3,0.1-0.1,0.7-0.2,0.8c0.1,0.1,0.1,0.2,0.1,0.4c0,0,0.2-0.1,0.2,0.1
					c-0.3,0-0.1,0.2-0.4,0.3c0.2-0.1,0,0.4,0.3,0.2c0,0.1-0.1,0-0.2,0.1c0.1,0.3-0.1,0.6,0,0.9c0,0,0.1,0,0.2,0L16.5,12
					c0,0.1,0.3,0.1,0.1,0.2h0.1c-0.2,0.6,0.2,1.3-0.2,1.9c0.1-0.1,0.1,0,0.1,0s0.1,0,0.2,0l-0.2,0.3c0.2,0,0,0.3,0.2,0.3v-0.1
					c0.2,0.1,0.4-0.2,0.7-0.1c-0.2-0.1,0.3-0.3,0-0.5h0.1c-0.1-0.1-0.1-0.1-0.1-0.2l0,0c0-0.3,0.1-0.5,0.1-0.8h-0.1
					c0-0.1,0.1-0.1,0.1-0.1c-0.2-0.1,0,0.2-0.2,0.1c0.2-0.1,0-0.5,0.3-0.6c0-0.1-0.1,0-0.1-0.1h0.1h-0.1c0-0.1,0.1-0.1,0.2-0.1v0.1
					c0.1-0.1,0-0.3,0-0.3v0.1c-0.1-0.3,0-0.7-0.1-1h-0.1c-0.1-0.2,0.1-0.2,0-0.5l0,0c-0.1-0.1-0.1-0.1-0.1-0.2
					c0.1,0.1,0.1-0.1,0.2,0c-0.1-0.3-0.1-0.1-0.3-0.3h0.1c-0.1-0.1-0.1-0.1-0.2-0.2c0.1,0.1,0.1-0.1,0.2,0c0.2-0.3-0.2-0.4,0.1-0.5
					c-0.3-0.1-0.1,0.2-0.2,0.2c-0.1,0.1-0.2-0.1-0.2-0.2c0-0.1,0.3-0.1,0.3-0.4l0,0c0.1-0.1-0.1-0.2,0-0.3c-0.2-0.1,0-0.1-0.2-0.1
					v0.2c0-0.5-0.3-0.6-0.2-0.8l0.1,0.1c0.1-0.1,0-0.1,0-0.2c0.2,0,0,0.2,0.2,0.4c0.1-0.1-0.1-0.2,0.1-0.2c-0.3-0.1,0-0.2-0.2-0.4
					h0.1l-0.1-0.1l0.2,0.1c-0.1-0.1,0.1-0.2,0-0.4c0,0.2-0.1,0.1-0.2,0.2c-0.2-0.3,0.3-0.2,0.3-0.5c0,0-0.1,0.2-0.1,0.1
					s0.1-0.1,0.1-0.2c0-0.2-0.1,0-0.2-0.1c0.1-0.1-0.1-0.1-0.1-0.2h0.1c0.1-0.3-0.3-0.1-0.2-0.3l0.2,0.1V6.3h0.1
					c-0.1-0.1-0.1-0.2,0-0.3c-0.1,0-0.2,0-0.2-0.1c0.1-0.1,0.1,0,0.1-0.1c0.1,0,0.2,0.1,0.1,0.1h0.1c0.1-0.1,0-0.2,0-0.3
					c0,0,0,0,0,0.1l-0.2-0.2h0.1l-0.1-0.1c0.1,0,0.2,0,0.2,0.1l-0.1-0.2c0,0,0.1-0.1,0.2-0.1c0.1-0.1-0.2-0.3-0.1-0.5
					c0,0,0,0-0.1-0.1c0-0.2,0.1-0.3,0-0.5L17.7,4c0-0.1-0.2,0.1-0.3-0.1c0,0.1,0.2,0.2,0.3,0.1c-0.1-0.1-0.3-0.2-0.1-0.4
					C17.6,3.7,17.6,3.7,17.6,3.8z M17.1,1.7c0.1,0,0.2-0.1,0.2,0C17.1,1.8,17.2,1.8,17.1,1.7z M14.1,2.7c0,0,0-0.1,0.1,0
					C14.1,2.7,14.1,2.8,14.1,2.7z M11.4,9.3L11.4,9.3C11.5,9.2,11.5,9.3,11.4,9.3z M11.4,9.4C11.4,9.5,11.4,9.5,11.4,9.4L11.4,9.4
					C11.4,9.4,11.3,9.4,11.4,9.4z M16.5,8.6L16.5,8.6C16.5,8.7,16.5,8.7,16.5,8.6z"/>
				<path class="st0" d="M14.3,2.4C14.3,2.5,14.3,2.5,14.3,2.4C14.3,2.5,14.3,2.5,14.3,2.4z"/>
				<polygon class="st0" points="17.6,4.9 17.6,4.9 17.7,4.9 				"/>
				<path class="st0" d="M10.8,6.9C10.8,6.9,10.8,6.8,10.8,6.9C10.8,6.8,10.8,6.8,10.8,6.9z"/>
				<path class="st0" d="M11.6,10.2v-0.1C11.5,10.2,11.5,10.2,11.6,10.2C11.5,10.2,11.6,10.2,11.6,10.2z"/>
				<path class="st0" d="M10.8,11.1L10.8,11.1L10.8,11.1C10.9,11.1,10.8,11.1,10.8,11.1z"/>
				<path class="st0" d="M11.2,10.3c-0.1,0-0.1,0.1,0,0.1l0,0C11.2,10.5,11.2,10.4,11.2,10.3z"/>
				<path class="st0" d="M11.1,10.5L11.1,10.5C11.2,10.6,11.1,10.5,11.1,10.5z"/>
				<path class="st0" d="M11.4,9.6C11.4,9.7,11.6,9.7,11.4,9.6C11.6,9.7,11.4,9.5,11.4,9.6z"/>
				<polygon class="st0" points="10.8,10.4 10.9,10.4 10.8,10.3 				"/>
				<path class="st0" d="M10.9,9.8v0.1l0,0C10.9,9.9,11,9.8,10.9,9.8z"/>
				<path class="st0" d="M10.9,10C10.9,10,10.9,10.1,10.9,10C10.9,10.1,10.9,10,10.9,10z"/>
				<polygon class="st0" points="10.8,10.2 10.8,10.2 10.8,10.1 				"/>
				<path class="st0" d="M11,8.7L11,8.7C11,8.5,10.9,8.5,11,8.7C11,8.6,11,8.7,11,8.7z"/>
				<path class="st0" d="M10.6,9h0.1H10.6L10.6,9z"/>
				<path class="st0" d="M10.7,8.6c0,0-0.1-0.2-0.1,0C10.6,8.6,10.6,8.7,10.7,8.6z"/>
				<polygon class="st0" points="11.3,6.8 11.2,6.9 11.5,6.9 				"/>
				<path class="st0" d="M11.4,5c-0.1,0.1,0.1,0.1,0,0.2c0,0.1,0.1-0.1,0.1,0C11.5,5.1,11.6,5.1,11.4,5z"/>
				<path class="st0" d="M11.5,5.2C11.5,5.2,11.5,5.3,11.5,5.2L11.5,5.2z"/>
				<polygon class="st0" points="16.3,14.3 16.3,14.4 16.3,14.4 				"/>
				<path class="st0" d="M16.5,14.5h-0.2H16.5C16.5,14.6,16.5,14.5,16.5,14.5z"/>
				<path class="st0" d="M16.9,1.4L16.9,1.4C16.8,1.5,16.9,1.5,16.9,1.4L16.9,1.4z"/>
				<polygon class="st0" points="17.7,2.8 17.7,2.8 17.6,2.9 				"/>
				<path class="st0" d="M17.9,4.1L17.9,4.1C17.9,4.1,17.7,4.1,17.9,4.1z"/>
			</g>
		</g>
	</g>
</g>
</svg>
