<?xml version="1.0" encoding="utf-8"?>
<!-- Generator: Adobe Illustrator 25.2.1, SVG Export Plug-In . SVG Version: 6.00 Build 0)  -->
<svg version="1.1" id="Layer_1" xmlns="http://www.w3.org/2000/svg" xmlns:xlink="http://www.w3.org/1999/xlink" x="0px" y="0px"
	 viewBox="0 0 23.6 16.3" style="enable-background:new 0 0 23.6 16.3;" xml:space="preserve">
<style type="text/css">
	.st0{fill:#FFFFFF;}
</style>
<g id="w2">
	<ellipse class="st0" cx="9.2" cy="8.7" rx="6.6" ry="6.5"/>
	<g>
		<g>
			<path d="M2.5,8.6c0-3.7,3-6.9,6.8-6.9c4,0,6.8,3.5,6.8,7c-0.1,4.1-3.3,6.9-6.9,6.9C5.5,15.5,2.4,12.5,2.5,8.6z M15.6,7.1
				c0-0.1,0-0.2,0-0.4c-0.3-1.2-1-2.1-1.8-3s-1.9-1.3-3-1.6c-0.8-0.2-1.6-0.2-2.6,0c1,0.2,1,0.2,1.2,0.3C9,2.3,8.7,2.3,8.7,2.4
				C8.4,2.6,8.4,2.5,8.2,2.5C7.9,2.4,8,2.1,7.8,2.2c-1.3,0.4-2.4,1-3.3,2C3,5.9,2.5,7.9,2.9,10c0.2,1.2,0.7,2.2,1.5,3.1
				c0.9,1,1.9,1.6,3.2,1.9c0.8,0.2,1.7,0.3,2.5,0.2c0.7-0.1,1.5-0.2,2.1-0.7c0.2,0,0.3-0.1,0.4-0.1c1.8-1.1,2.9-2.8,3.2-4.8
				C15.9,8.8,15.9,7.9,15.6,7.1z"/>
			<path d="M15.5,8c0.1,0.1,0.2,0.2,0.2,0.3c0,0.9,0,1.9-0.6,2.7c0,0,0,0.1,0,0.2c-0.2-0.1-0.4-0.3-0.5,0c0,0-0.1,0-0.2,0
				C14.2,11,14,11,13.7,11.4c0.6-0.3,0.7-0.2,0.7,0.3c-0.3-0.3-0.5-0.2-0.7,0.2c-0.1,0.2,0.2,0.3,0.1,0.5c-0.1,0.2,0,0.2,0.1,0.2
				c0.4-0.1,0.6-0.3,0.6-0.7c0-0.1-0.1-0.4,0.2-0.4c0.2,0,0.3-0.1,0.4-0.2c-0.2,0.7-0.5,1.4-1.2,1.8c-0.1,0.1-0.3,0.1-0.3,0.3
				c0,0.3-0.3,0.4-0.5,0.5c-0.4,0.1-0.6,0.4-0.8,0.7c-0.2,0-0.4,0.1-0.6,0.2c-0.5,0.2-1,0.4-1.6,0.4c0.7-0.1,1.3-0.4,1.7-0.9
				c-0.1,0-0.1,0-0.2,0c-0.1-0.1-0.1-0.1-0.2-0.2c0-0.1-0.1-0.2-0.2-0.2c-0.3,0.4-0.6,0.1-1,0.1c0.3-0.2,0.8-0.3,0.9-0.7
				c0-0.1,0.1,0,0.2,0c0.2,0.1-0.1,0.2,0.1,0.3c0.3-0.3,0.5-0.8,1-1c0.1-0.1,0.3-0.1,0.4-0.2c0.3-0.1,0.6-0.2,0.6,0.3l0.1,0.1
				c0-0.3,0-0.6-0.1-0.9c0-0.2,0-0.4-0.2-0.4s-0.3,0.2-0.3,0.5c0,0,0.2,0.1,0,0.1c-0.1,0-0.2,0-0.2-0.1c0.2-0.5-0.3-0.5-0.5-0.6
				c0.3-0.4,0.5-0.8,0.8-1c0.2-0.1,0.4-0.1,0.3-0.4c0.1,0,0.1,0,0.2,0c-0.1,0.3,0.3,0.1,0.3,0.3c0,0.1-0.3-0.1-0.3,0.1
				c0,0.1,0.1,0.2,0.2,0.1c0.1,0,0.4,0,0.4-0.2S14,10,13.9,10c-0.3,0-0.3-0.2-0.2-0.4S13.6,9.1,14,9c0.3,0.2,0.3,0.6,0.4,0.9
				c0.1,0.2,0,0.2,0.2,0.3c-0.1-0.6-0.1-1.2-0.5-1.8c0,0.3,0.1,0.5-0.2,0.6c0.1,0,0.1-0.1,0-0.2c-0.1-0.1-0.2,0-0.2,0.1
				C13.7,9,13.6,9,13.5,9c-0.1-0.1,0-0.2,0-0.2c0-0.5,0.1-1,0.1-1.4c0-0.2,0.1-0.4-0.2-0.5c0.2,2.2-0.6,2.6-1.6,2.5
				c1-0.4,1.4-0.9,1.3-1.7c-0.1-0.5-0.6-1.1-1-1.2c-0.7-0.1-1.3,0.2-1.6,0.7c-0.4,0.7-0.2,1.2,0.7,2.1c-0.5-0.1-0.8-0.4-1-0.9
				s-0.3-1-0.1-1.5c0.2-0.8,0.7-1.1,1.5-1c0.2,0,0.4,0,0.6,0c0.2-0.1,0.3-0.1,0.5,0c0.2,0.2,0.3,0,0.4-0.1c-0.1,0.3,0,0.5,0.1,0.6
				s0.2,0.2,0.3,0.1s0-0.1,0-0.2c-0.1,0-0.1-0.1,0-0.2c0.1,0,0.1,0,0.2,0c0,0.2,0.2,0.2,0.2,0.4c-0.1,0.5,0.2,1,0.4,1.5
				c0.1,0.2,0.1,0.1,0.2,0.1c0.3,0,0.1-0.1,0-0.2c0-0.2,0-0.3,0.1-0.4l0,0c0.1,0.1,0.1,0.2,0.2,0.3C14.9,8.2,15.3,8.3,15.5,8z
				 M12.8,12.8c-0.4-0.1-1.2,0.4-1.1,0.9c0,0.1,0,0.1,0.1,0.1c0,0,0.1,0,0.1-0.1C11.9,13.2,12.4,13.1,12.8,12.8z M12.7,11.6
				c0.3-0.2,0.6-0.2,0.7-0.5c0-0.1,0.2-0.2,0.1-0.3l-0.1-0.1c-0.1,0-0.2,0.1-0.2,0.3c0,0.1-0.1,0.2-0.2,0.2h-0.1
				c-0.1-0.1-0.1-0.1-0.1,0C12.7,11.2,12.7,11.3,12.7,11.6z"/>
			<path d="M12.3,4.2c0-0.1,0-0.3,0-0.5C12,3.9,11.8,4,11.6,3.9V3.6c0.1-0.1,0.3,0,0.4,0.1c0-0.1-0.1-0.2-0.1-0.3
				c0-0.2-0.1-0.2-0.2-0.1c-0.1,0.1-0.1,0.1-0.3,0.1s-0.3,0.1-0.1,0.2c0.1,0.1,0.1,0.1,0.1,0.2c-0.1,0.1-0.1,0-0.2,0
				c-0.2,0-0.3-0.1-0.4-0.3c-0.1-0.1,0-0.3,0.1-0.2C11.4,3.5,11,3,11.1,3c-0.1-0.1-0.3-0.4-0.4-0.2c-0.3,0.3-0.7,0.1-1,0.3
				C9.6,3.1,9.6,3,9.5,3c0-0.1,0-0.1,0.1-0.2c0.2-0.2,0.5,0,0.7-0.2c0,0,0.1,0,0.2-0.1c-0.4,0-0.9,0.2-1-0.4
				c0.9,0.1,1.8,0.3,2.6,0.7l0,0C12.5,2.9,13,3.1,13,3.4c0.1,0.4,0.1,0.9-0.1,1.4C12.7,4.6,12.5,4.4,12.3,4.2z"/>
			<path d="M14.6,7.5c-0.2-0.1-0.2,0.2-0.3,0.2c-0.2-0.1-0.1-0.3,0-0.4c0.2-0.2-0.1-0.2-0.1-0.4c0-0.1-0.4-0.3,0-0.4
				c0.1-0.1,0-0.1,0-0.1c-0.5,0-0.6-0.4-0.6-0.8c0-0.3,0-0.3-0.3-0.6l0,0c-0.2-0.2-0.2-0.4-0.1-0.7c0.1,0.1,0.2,0.2,0.3,0.3
				c0.2-0.1,0.2-0.4,0.3-0.6c0.1,0.2,0.3,0.3,0.2,0.6c0,0,0,0.1,0.1,0.1c0.7,0.3,0.8,1,1.1,1.6c-0.2,0.1-0.3-0.1-0.4-0.1
				C14.4,6.5,14.7,7.1,14.6,7.5C14.6,7.6,14.6,7.5,14.6,7.5z"/>
			<path d="M9.8,5.5c0.4,0,0.8,0,0.8-0.4c0-0.2,0-0.6-0.4-0.6C9.9,4.4,9.6,4.5,9.6,5C9.4,4.6,9.4,4.3,9.9,4c0.2-0.2,0.5-0.2,0.8,0.1
				C11.1,4.5,11.2,5,11,5.3C10.8,5.7,10.3,5.7,9.8,5.5z"/>
			<path d="M12.3,4.2c0.2,0.2,0.4,0.4,0.6,0.5c0.1,0.3,0.3,0,0.4,0.1l0,0c0,0.2,0.1,0.4,0.1,0.7c0,0.1,0.1,0.1,0,0.2
				c0,0-0.1,0-0.2,0c-0.1-0.2-0.2-0.2-0.4-0.4c-0.3-0.4-0.3-0.4-0.7-0.4c0.2-0.2,0.1-0.3-0.1-0.5c-0.1-0.1-0.2-0.1-0.3-0.1l-0.1,0.1
				c0,0.1,0.1,0.2,0.3,0.2c0.1,0,0.3-0.1,0.2,0.2C12,5,11.7,5,11.5,4.9c-0.2-0.2-0.1-0.4,0-0.6C11.8,4.1,12,4,12.3,4.2z"/>
			<path d="M4.6,12.8c0.5,0,0.6-0.2,0.4-0.5c-0.1-0.2-0.2-0.3-0.4-0.4c-0.1-0.1-0.2-0.4-0.4-0.3c-0.1,0.1-0.1,0.3,0,0.5
				c0,0,0,0.1,0.1,0.2C4,12,4,11.7,4.1,11.5c0.1-0.4,0.4-0.3,0.6-0.1c0.3,0.2,0.5,0.5,0.7,0.9c0.1,0.2,0.3,0.5,0.1,0.7
				C5.1,13.2,4.9,13,4.6,12.8z"/>
			<path d="M6.4,5.4c0-0.4-0.1-0.8-0.6-0.8c-0.3,0-0.5,0.3-0.5,0.5C5.2,5.5,5.5,5.7,5.8,5.8C5.5,6,5.3,5.9,5.2,5.7
				C4.8,5.3,5.1,4.9,5.3,4.6C5.4,4.3,5.7,4.2,6,4.4C6.4,4.5,6.5,4.8,6.4,5.4z"/>
			<path d="M10,14.9c-0.3,0-0.7-0.2-0.9,0.2c-0.1,0.1-0.2,0.1-0.3,0S8.6,15,8.5,15s-0.1,0-0.1,0.1s0.1,0,0.1,0.1
				c-0.6,0.3-0.4-0.7-0.9-0.6c0.2-0.1,0.3-0.1,0.4,0c0.3,0.3,0.7,0.2,1.1,0.1C9.4,14.6,9.8,14.5,10,14.9z"/>
			<path d="M15.6,7.1c0,0.3-0.2,0.6-0.1,0.9c-0.1,0-0.3,0.1-0.4,0c0,0-0.1-0.1,0-0.2c0.3-0.4,0.2-0.8-0.3-1c-0.2-0.1,0.1-0.3,0-0.4
				c0.3,0.1,0.5,0.2,0.6,0.5C15.4,6.9,15.3,7.3,15.6,7.1z"/>
			<path d="M8.5,12.3C8.1,12.2,8,12,8.1,11.6c0.1-0.3,0.6-0.5,0.8-0.4C9.2,11.4,9.3,11.6,9,12c0.1-0.3,0-0.5-0.3-0.7
				c-0.1-0.1-0.3,0-0.4,0.2C8.2,11.8,8.3,12,8.5,12.3z"/>
			<path d="M11.3,14c0.1,0.1,0.1,0.1,0.2,0.2c-0.1,0.2-0.4,0.4-0.6,0.5c-0.4,0.2-0.8,0.3-1-0.2c0.2-0.1,0.5,0.1,0.8-0.1
				c0,0.1-0.1,0.2-0.2,0.3c0.4,0,0.7-0.1,0.8-0.5C11.2,14,11.2,13.9,11.3,14z"/>
			<path d="M3.5,9.2c-0.1-0.3,0-0.6,0.3-0.7c0.3-0.1,0.6,0.1,0.6,0.4c0,0.2,0.1,0.5-0.4,0.6c0.2-0.3,0.3-0.6,0-0.7
				C3.7,8.7,3.5,8.9,3.5,9.2z"/>
			<path d="M11.5,13.1c0.1-0.5,0.1-1,0.6-1l0.1-0.1c0-0.1,0-0.2,0.1-0.2c0,0,0.1,0,0,0.1s0.2,0.2,0,0.4
				C12.1,12.5,11.8,12.7,11.5,13.1z"/>
			<path d="M6.2,13.7c0.2-0.2,0.2-0.4,0-0.6C6,13,6,13.2,5.9,13.3c-0.2-0.1-0.2-0.3,0-0.4c0.1-0.1,0.3-0.1,0.5,0
				c0.2,0.2,0.4,0.3,0.3,0.6S6.4,13.8,6.2,13.7z"/>
			<path d="M5.4,9.5c0.2-0.3-0.1-0.4-0.3-0.4C5,9,4.8,9.2,4.9,9.4c0,0.1,0.1,0.1-0.1,0.1c-0.1,0-0.1,0-0.1-0.2C4.7,9.1,4.8,9,5,8.9
				C5.1,8.8,5.3,8.8,5.4,9C5.6,9.1,5.5,9.3,5.4,9.5z"/>
			<path d="M5,5.9c-0.4,0-0.4,0-0.2,0.5c-0.2,0-0.3-0.1-0.4-0.3c0-0.2,0.1-0.3,0.2-0.4C4.9,5.6,5,5.7,5,5.9z"/>
			<path d="M8,10.9c-0.2,0-0.3,0-0.3,0.2v0.1H7.6c-0.1-0.1-0.1-0.2-0.1-0.3c0.1-0.2,0.2-0.2,0.4-0.2C8,10.7,8,10.8,8,10.9
				C8.1,11.1,8.1,10.9,8,10.9z"/>
			<path d="M8,2.6c-0.3,0-0.6-0.3-0.6,0.2c0,0.1-0.1,0.1-0.2,0c-0.1,0-0.1-0.1,0-0.2C7.4,2.5,7.7,2.4,8,2.6z"/>
		</g>
	</g>
</g>
<g id="w1">
</g>
</svg>
